simulation/qsim/NewPC5.msim.vcd
$comment
	File created using the following command:
		vcd file NewPC5.msim.vcd -direction
$end
$date
	Sat Nov 20 17:08:38 2021
$end
$version
	ModelSim Version 10.4d
$end
$timescale
	1ps
$end

$scope module skeleton_vlg_vec_tst $end
$var reg 1 ! clock $end
$var reg 1 " reset $end
$var wire 1 # dmem_clock $end
$var wire 1 $ imem_clock $end
$var wire 1 % pc [11] $end
$var wire 1 & pc [10] $end
$var wire 1 ' pc [9] $end
$var wire 1 ( pc [8] $end
$var wire 1 ) pc [7] $end
$var wire 1 * pc [6] $end
$var wire 1 + pc [5] $end
$var wire 1 , pc [4] $end
$var wire 1 - pc [3] $end
$var wire 1 . pc [2] $end
$var wire 1 / pc [1] $end
$var wire 1 0 pc [0] $end
$var wire 1 1 processor_clock $end
$var wire 1 2 regfile_clock $end

$scope module i1 $end
$var wire 1 3 gnd $end
$var wire 1 4 vcc $end
$var wire 1 5 unknown $end
$var tri1 1 6 devclrn $end
$var tri1 1 7 devpor $end
$var tri1 1 8 devoe $end
$var wire 1 9 imem_clock~output_o $end
$var wire 1 : dmem_clock~output_o $end
$var wire 1 ; processor_clock~output_o $end
$var wire 1 < regfile_clock~output_o $end
$var wire 1 = pc[0]~output_o $end
$var wire 1 > pc[1]~output_o $end
$var wire 1 ? pc[2]~output_o $end
$var wire 1 @ pc[3]~output_o $end
$var wire 1 A pc[4]~output_o $end
$var wire 1 B pc[5]~output_o $end
$var wire 1 C pc[6]~output_o $end
$var wire 1 D pc[7]~output_o $end
$var wire 1 E pc[8]~output_o $end
$var wire 1 F pc[9]~output_o $end
$var wire 1 G pc[10]~output_o $end
$var wire 1 H pc[11]~output_o $end
$var wire 1 I clock~input_o $end
$var wire 1 J reset~input_o $end
$var wire 1 K comb_3|clock_out~0_combout $end
$var wire 1 L comb_3|clock_out~q $end
$var wire 1 M comb_4|clk_track~0_combout $end
$var wire 1 N comb_4|r_reg[0]~0_combout $end
$var wire 1 O comb_4|clk_track~q $end
$var wire 1 P comb_5|clk_track~0_combout $end
$var wire 1 Q comb_5|clk_track~q $end
$var wire 1 R my_processor|Add0~1 $end
$var wire 1 S my_processor|Add0~3 $end
$var wire 1 T my_processor|Add0~5 $end
$var wire 1 U my_processor|Add0~7 $end
$var wire 1 V my_processor|Add0~9 $end
$var wire 1 W my_processor|Add0~11 $end
$var wire 1 X my_processor|Add0~13 $end
$var wire 1 Y my_processor|Add0~15 $end
$var wire 1 Z my_processor|Add0~17 $end
$var wire 1 [ my_processor|Add0~19 $end
$var wire 1 \ my_processor|Add0~21 $end
$var wire 1 ] my_processor|Add0~22_combout $end
$var wire 1 ^ my_processor|jump[0]~0_combout $end
$var wire 1 _ my_processor|jump[0]~1_combout $end
$var wire 1 ` my_processor|jump[11]~13_combout $end
$var wire 1 a my_processor|Add0~20_combout $end
$var wire 1 b my_processor|jump[10]~12_combout $end
$var wire 1 c my_processor|Add0~18_combout $end
$var wire 1 d my_processor|jump[9]~11_combout $end
$var wire 1 e my_processor|Add0~16_combout $end
$var wire 1 f my_processor|jump[8]~10_combout $end
$var wire 1 g my_processor|Add0~14_combout $end
$var wire 1 h my_processor|jump[7]~9_combout $end
$var wire 1 i my_processor|Add0~12_combout $end
$var wire 1 j my_processor|jump[6]~8_combout $end
$var wire 1 k my_processor|Add0~10_combout $end
$var wire 1 l my_processor|jump[5]~7_combout $end
$var wire 1 m my_processor|Add0~8_combout $end
$var wire 1 n my_processor|jump[4]~6_combout $end
$var wire 1 o my_processor|Add0~6_combout $end
$var wire 1 p my_processor|jump[3]~5_combout $end
$var wire 1 q my_processor|Add0~4_combout $end
$var wire 1 r my_processor|jump[2]~4_combout $end
$var wire 1 s my_processor|is_jiType~0_combout $end
$var wire 1 t my_processor|Add0~2_combout $end
$var wire 1 u my_processor|jump[1]~3_combout $end
$var wire 1 v my_processor|Add0~0_combout $end
$var wire 1 w my_processor|jump[0]~2_combout $end
$var wire 1 x my_imem|altsyncram_component|auto_generated|q_a [31] $end
$var wire 1 y my_imem|altsyncram_component|auto_generated|q_a [30] $end
$var wire 1 z my_imem|altsyncram_component|auto_generated|q_a [29] $end
$var wire 1 { my_imem|altsyncram_component|auto_generated|q_a [28] $end
$var wire 1 | my_imem|altsyncram_component|auto_generated|q_a [27] $end
$var wire 1 } my_imem|altsyncram_component|auto_generated|q_a [26] $end
$var wire 1 ~ my_imem|altsyncram_component|auto_generated|q_a [25] $end
$var wire 1 !! my_imem|altsyncram_component|auto_generated|q_a [24] $end
$var wire 1 "! my_imem|altsyncram_component|auto_generated|q_a [23] $end
$var wire 1 #! my_imem|altsyncram_component|auto_generated|q_a [22] $end
$var wire 1 $! my_imem|altsyncram_component|auto_generated|q_a [21] $end
$var wire 1 %! my_imem|altsyncram_component|auto_generated|q_a [20] $end
$var wire 1 &! my_imem|altsyncram_component|auto_generated|q_a [19] $end
$var wire 1 '! my_imem|altsyncram_component|auto_generated|q_a [18] $end
$var wire 1 (! my_imem|altsyncram_component|auto_generated|q_a [17] $end
$var wire 1 )! my_imem|altsyncram_component|auto_generated|q_a [16] $end
$var wire 1 *! my_imem|altsyncram_component|auto_generated|q_a [15] $end
$var wire 1 +! my_imem|altsyncram_component|auto_generated|q_a [14] $end
$var wire 1 ,! my_imem|altsyncram_component|auto_generated|q_a [13] $end
$var wire 1 -! my_imem|altsyncram_component|auto_generated|q_a [12] $end
$var wire 1 .! my_imem|altsyncram_component|auto_generated|q_a [11] $end
$var wire 1 /! my_imem|altsyncram_component|auto_generated|q_a [10] $end
$var wire 1 0! my_imem|altsyncram_component|auto_generated|q_a [9] $end
$var wire 1 1! my_imem|altsyncram_component|auto_generated|q_a [8] $end
$var wire 1 2! my_imem|altsyncram_component|auto_generated|q_a [7] $end
$var wire 1 3! my_imem|altsyncram_component|auto_generated|q_a [6] $end
$var wire 1 4! my_imem|altsyncram_component|auto_generated|q_a [5] $end
$var wire 1 5! my_imem|altsyncram_component|auto_generated|q_a [4] $end
$var wire 1 6! my_imem|altsyncram_component|auto_generated|q_a [3] $end
$var wire 1 7! my_imem|altsyncram_component|auto_generated|q_a [2] $end
$var wire 1 8! my_imem|altsyncram_component|auto_generated|q_a [1] $end
$var wire 1 9! my_imem|altsyncram_component|auto_generated|q_a [0] $end
$var wire 1 :! my_processor|pc [31] $end
$var wire 1 ;! my_processor|pc [30] $end
$var wire 1 <! my_processor|pc [29] $end
$var wire 1 =! my_processor|pc [28] $end
$var wire 1 >! my_processor|pc [27] $end
$var wire 1 ?! my_processor|pc [26] $end
$var wire 1 @! my_processor|pc [25] $end
$var wire 1 A! my_processor|pc [24] $end
$var wire 1 B! my_processor|pc [23] $end
$var wire 1 C! my_processor|pc [22] $end
$var wire 1 D! my_processor|pc [21] $end
$var wire 1 E! my_processor|pc [20] $end
$var wire 1 F! my_processor|pc [19] $end
$var wire 1 G! my_processor|pc [18] $end
$var wire 1 H! my_processor|pc [17] $end
$var wire 1 I! my_processor|pc [16] $end
$var wire 1 J! my_processor|pc [15] $end
$var wire 1 K! my_processor|pc [14] $end
$var wire 1 L! my_processor|pc [13] $end
$var wire 1 M! my_processor|pc [12] $end
$var wire 1 N! my_processor|pc [11] $end
$var wire 1 O! my_processor|pc [10] $end
$var wire 1 P! my_processor|pc [9] $end
$var wire 1 Q! my_processor|pc [8] $end
$var wire 1 R! my_processor|pc [7] $end
$var wire 1 S! my_processor|pc [6] $end
$var wire 1 T! my_processor|pc [5] $end
$var wire 1 U! my_processor|pc [4] $end
$var wire 1 V! my_processor|pc [3] $end
$var wire 1 W! my_processor|pc [2] $end
$var wire 1 X! my_processor|pc [1] $end
$var wire 1 Y! my_processor|pc [0] $end
$var wire 1 Z! comb_4|r_reg [1] $end
$var wire 1 [! comb_4|r_reg [0] $end
$var wire 1 \! my_imem|altsyncram_component|auto_generated|ram_block1a0_PORTADATAOUT_bus [0] $end
$var wire 1 ]! my_imem|altsyncram_component|auto_generated|ram_block1a27_PORTADATAOUT_bus [0] $end
$var wire 1 ^! my_imem|altsyncram_component|auto_generated|ram_block1a30_PORTADATAOUT_bus [0] $end
$var wire 1 _! my_imem|altsyncram_component|auto_generated|ram_block1a31_PORTADATAOUT_bus [0] $end
$var wire 1 `! my_imem|altsyncram_component|auto_generated|ram_block1a29_PORTADATAOUT_bus [0] $end
$var wire 1 a! my_imem|altsyncram_component|auto_generated|ram_block1a28_PORTADATAOUT_bus [0] $end
$var wire 1 b! my_imem|altsyncram_component|auto_generated|ram_block1a1_PORTADATAOUT_bus [0] $end
$var wire 1 c! my_imem|altsyncram_component|auto_generated|ram_block1a2_PORTADATAOUT_bus [0] $end
$var wire 1 d! my_imem|altsyncram_component|auto_generated|ram_block1a3_PORTADATAOUT_bus [0] $end
$var wire 1 e! my_imem|altsyncram_component|auto_generated|ram_block1a4_PORTADATAOUT_bus [0] $end
$var wire 1 f! my_imem|altsyncram_component|auto_generated|ram_block1a5_PORTADATAOUT_bus [0] $end
$var wire 1 g! my_imem|altsyncram_component|auto_generated|ram_block1a6_PORTADATAOUT_bus [0] $end
$var wire 1 h! my_imem|altsyncram_component|auto_generated|ram_block1a7_PORTADATAOUT_bus [0] $end
$var wire 1 i! my_imem|altsyncram_component|auto_generated|ram_block1a8_PORTADATAOUT_bus [0] $end
$var wire 1 j! my_imem|altsyncram_component|auto_generated|ram_block1a9_PORTADATAOUT_bus [0] $end
$var wire 1 k! my_imem|altsyncram_component|auto_generated|ram_block1a10_PORTADATAOUT_bus [0] $end
$var wire 1 l! my_imem|altsyncram_component|auto_generated|ram_block1a11_PORTADATAOUT_bus [0] $end
$upscope $end
$upscope $end
$enddefinitions $end
#0
$dumpvars
0!
0"
0#
0$
00
0/
0.
0-
0,
0+
0*
0)
0(
0'
0&
0%
01
02
03
14
x5
16
17
18
09
0:
0;
0<
0=
0>
0?
0@
0A
0B
0C
0D
0E
0F
0G
0H
0I
0J
1K
0L
1M
1N
0O
1P
0Q
0R
1S
0T
1U
0V
1W
0X
1Y
0Z
1[
0\
0]
1^
0_
0`
0a
0b
0c
0d
0e
0f
0g
0h
0i
0j
0k
0l
0m
0n
0o
0p
0q
0r
0s
0t
0u
1v
1w
09!
08!
07!
06!
05!
04!
03!
02!
01!
00!
0/!
0.!
z-!
z,!
z+!
z*!
z)!
z(!
z'!
z&!
z%!
z$!
z#!
z"!
z!!
z~
z}
0|
0{
0z
0y
0x
0Y!
0X!
0W!
0V!
0U!
0T!
0S!
0R!
0Q!
0P!
0O!
0N!
zM!
zL!
zK!
zJ!
zI!
zH!
zG!
zF!
zE!
zD!
zC!
zB!
zA!
z@!
z?!
z>!
z=!
z<!
z;!
z:!
0[!
zZ!
0\!
0]!
0^!
0_!
0`!
0a!
0b!
0c!
0d!
0e!
0f!
0g!
0h!
0i!
0j!
0k!
0l!
$end
#10000
1!
1I
19
1$
1[!
1L
1:
1#
0N
0K
#20000
0!
0I
09
0$
#30000
1!
1I
19
1$
0[!
1Q
1O
0L
0:
1;
1<
12
11
0#
1N
0P
0M
1K
1Y!
1=
1R
0v
10
1t
0w
1u
#40000
0!
0I
09
0$
#50000
1!
1I
19
1$
1[!
1L
1:
1#
0N
0K
#60000
0!
0I
09
0$
#70000
1!
1I
19
1$
0[!
0Q
0O
0L
0:
0;
0<
02
01
0#
1N
1P
1M
1K
#80000
0!
0I
09
0$
#90000
1!
1I
19
1$
1[!
1L
1:
1#
0N
0K
#100000
0!
0I
09
0$
#110000
1!
1I
19
1$
0[!
1Q
1O
0L
0:
1;
1<
12
11
0#
1N
0P
0M
1K
0Y!
1X!
1>
0=
0R
1v
0S
0t
00
1/
1S
1t
1q
1w
0u
0q
1u
1r
0r
#120000
0!
0I
09
0$
#130000
1!
1I
19
1$
1[!
1L
1:
1#
0N
0K
#140000
0!
0I
09
0$
#150000
1!
1I
19
1$
0[!
1`!
1]!
1\!
19!
1|
1z
0Q
0O
0L
0:
0;
0<
02
01
0#
1N
1P
1M
1K
#160000
0!
0I
09
0$
#170000
1!
1I
19
1$
1[!
1L
1:
1#
0N
0K
#180000
0!
0I
09
0$
#190000
1!
1I
19
1$
0[!
1Q
1O
0L
0:
1;
1<
12
11
0#
1N
0P
0M
1K
1Y!
1=
1R
0v
10
0S
0t
0w
1q
0u
1r
#200000
0!
0I
09
0$
#210000
1!
1I
19
1$
1[!
1L
1:
1#
0N
0K
#220000
0!
0I
09
0$
#230000
1!
1I
19
1$
0[!
0`!
1c!
17!
0z
0Q
0O
0L
0:
0;
0<
1s
1_
02
01
0#
1N
1P
1M
1K
1w
#240000
0!
0I
09
0$
#250000
1!
1I
19
1$
1[!
1L
1:
1#
0N
0K
#260000
0!
0I
09
0$
#270000
1!
1I
19
1$
0[!
1Q
1O
0L
0:
1;
1<
12
11
0#
1N
0P
0M
1K
0X!
1W!
1?
0>
1S
1t
1T
0q
0/
1.
0T
1q
1o
0o
#280000
0!
0I
09
0$
#290000
1!
1I
19
1$
1[!
1L
1:
1#
0N
0K
#300000
0!
0I
09
0$
#310000
1!
1I
19
1$
0[!
1`!
0c!
1b!
0\!
09!
18!
07!
1z
0Q
0O
0L
0:
0;
0<
0s
0_
02
01
0#
1N
0w
1u
0r
1P
1M
1K
1r
#320000
0!
0I
09
0$
#330000
1!
1I
19
1$
1[!
1L
1:
1#
0N
0K
#340000
0!
0I
09
0$
#350000
1!
1I
19
1$
0[!
1Q
1O
0L
0:
1;
1<
12
11
0#
1N
0P
0M
1K
0Y!
1X!
1>
0=
0R
1v
0S
0t
00
1/
1S
1t
1T
0q
1w
0u
0T
1q
1o
1u
0r
0o
1r
1p
0p
#360000
0!
0I
09
0$
#370000
1!
1I
19
1$
1[!
1L
1:
1#
0N
0K
#380000
0!
0I
09
0$
#390000
1!
1I
19
1$
0[!
0b!
08!
0Q
0O
0L
0:
0;
0<
02
01
0#
1N
1P
1M
1K
#400000
0!
0I
09
0$
#410000
1!
1I
19
1$
1[!
1L
1:
1#
0N
0K
#420000
0!
0I
09
0$
#430000
1!
1I
19
1$
0[!
1Q
1O
0L
0:
1;
1<
12
11
0#
1N
0P
0M
1K
1Y!
1=
1R
0v
10
0S
0t
0w
1T
0q
0u
1o
0r
1p
#440000
0!
0I
09
0$
#450000
1!
1I
19
1$
1[!
1L
1:
1#
0N
0K
#460000
0!
0I
09
0$
#470000
1!
1I
19
1$
0[!
0`!
1d!
1\!
19!
16!
0z
0Q
0O
0L
0:
0;
0<
1s
1_
02
01
0#
1N
1P
1M
1K
1w
#480000
0!
0I
09
0$
#490000
1!
1I
19
1$
1[!
1L
1:
1#
0N
0K
#500000
0!
0I
09
0$
#510000
1!
1I
19
1$
0[!
1Q
1O
0L
0:
1;
1<
12
11
0#
1N
0P
0M
1K
0X!
0W!
1V!
1@
0?
0>
1S
1t
0T
1q
0U
0o
0/
0.
1-
0q
1U
1o
1m
0m
#520000
0!
0I
09
0$
#530000
1!
1I
19
1$
1[!
1L
1:
1#
0N
0K
#540000
0!
0I
09
0$
#550000
1!
1I
19
1$
0[!
0d!
0]!
0\!
09!
0|
06!
0Q
0O
0L
0:
0;
0<
0s
0_
02
01
0#
1N
0w
0p
1P
1M
1K
1u
1p
#560000
0!
0I
09
0$
#570000
1!
1I
19
1$
1[!
1L
1:
1#
0N
0K
#580000
0!
0I
09
0$
#590000
1!
1I
19
1$
0[!
1Q
1O
0L
0:
1;
1<
12
11
0#
1N
0P
0M
1K
0Y!
1X!
1>
0=
0R
1v
0S
0t
00
1/
1S
1t
1q
1w
0u
0q
1u
1r
0r
#600000
0!
0I
09
0$
#610000
1!
1I
19
1$
1[!
1L
1:
1#
0N
0K
#620000
0!
0I
09
0$
#630000
1!
1I
19
1$
0[!
1`!
1]!
1\!
19!
1|
1z
0Q
0O
0L
0:
0;
0<
02
01
0#
1N
1P
1M
1K
#640000
0!
0I
09
0$
#650000
1!
1I
19
1$
1[!
1L
1:
1#
0N
0K
#660000
0!
0I
09
0$
#670000
1!
1I
19
1$
0[!
1Q
1O
0L
0:
1;
1<
12
11
0#
1N
0P
0M
1K
1Y!
1=
1R
0v
10
0S
0t
0w
1q
0u
1r
#680000
0!
0I
09
0$
#690000
1!
1I
19
1$
1[!
1L
1:
1#
0N
0K
#700000
0!
0I
09
0$
#710000
1!
1I
19
1$
0[!
0Q
0O
0L
0:
0;
0<
02
01
0#
1N
1P
1M
1K
#720000
0!
0I
09
0$
#730000
1!
1I
19
1$
1[!
1L
1:
1#
0N
0K
#740000
0!
0I
09
0$
#750000
1!
1I
19
1$
0[!
1Q
1O
0L
0:
1;
1<
12
11
0#
1N
0P
0M
1K
0Y!
0X!
1W!
1?
0>
0=
0R
1v
1S
1t
1T
0q
00
0/
1.
0t
0T
1q
0U
0o
1w
1u
0r
1U
1o
1m
0u
1r
0p
0m
1p
1n
0n
#760000
0!
0I
09
0$
#770000
1!
1I
19
1$
1[!
1L
1:
1#
0N
0K
#780000
0!
0I
09
0$
#790000
1!
1I
19
1$
0[!
0\!
09!
0Q
0O
0L
0:
0;
0<
02
01
0#
1N
1P
1M
1K
#800000
0!
0I
09
0$
#810000
1!
1I
19
1$
1[!
1L
1:
1#
0N
0K
#820000
0!
0I
09
0$
#830000
1!
1I
19
1$
0[!
1Q
1O
0L
0:
1;
1<
12
11
0#
1N
0P
0M
1K
1Y!
1=
1R
0v
10
1t
0w
1u
#840000
0!
0I
09
0$
#850000
1!
1I
19
1$
1[!
1L
1:
1#
0N
0K
#860000
0!
0I
09
0$
#870000
1!
1I
19
1$
0[!
1a!
0`!
0]!
1\!
19!
0|
0z
1{
0Q
0O
0L
0:
0;
0<
02
01
0#
1N
1P
1M
1K
#880000
0!
0I
09
0$
#890000
1!
1I
19
1$
1[!
1L
1:
1#
0N
0K
#900000
0!
0I
09
0$
#910000
1!
1I
19
1$
0[!
1Q
1O
0L
0:
1;
1<
12
11
0#
1N
0P
0M
1K
0Y!
1X!
1>
0=
0R
1v
0S
0t
00
1/
1S
1t
1T
0q
1w
0u
0T
1q
0U
0o
1u
0r
1U
1o
1m
1r
0p
0m
1p
1n
0n
#920000
0!
0I
09
0$
#930000
1!
1I
19
1$
1[!
1L
1:
1#
0N
0K
#940000
0!
0I
09
0$
#950000
1!
1I
19
1$
0[!
0a!
1`!
1]!
1|
1z
0{
0Q
0O
0L
0:
0;
0<
02
01
0#
1N
1P
1M
1K
#960000
0!
0I
09
0$
#970000
1!
1I
19
1$
1[!
1L
1:
1#
0N
0K
#980000
0!
0I
09
0$
#990000
1!
1I
19
1$
0[!
1Q
1O
0L
0:
1;
1<
12
11
0#
1N
0P
0M
1K
1Y!
1=
1R
0v
10
0S
0t
0w
1T
0q
0u
0U
0o
0r
1m
0p
1n
#1000000
0!
0I
09
0$
#1010000
1!
1I
19
1$
1[!
1L
1:
1#
0N
0K
#1020000
0!
0I
09
0$
#1030000
1!
1I
19
1$
0[!
0Q
0O
0L
0:
0;
0<
02
01
0#
1N
1P
1M
1K
#1040000
0!
0I
09
0$
#1050000
1!
1I
19
1$
1[!
1L
1:
1#
0N
0K
#1060000
0!
0I
09
0$
#1070000
1!
1I
19
1$
0[!
1Q
1O
0L
0:
1;
1<
12
11
0#
1N
0P
0M
1K
0Y!
0X!
0W!
0V!
1U!
1A
0@
0?
0>
0=
0R
1v
1S
1t
0T
1q
1U
1o
1V
0m
00
0/
0.
0-
1,
0t
0q
0o
0V
1m
1k
1w
1u
1r
1p
0n
0k
0u
0r
0p
1n
1l
0l
#1080000
0!
0I
09
0$
#1090000
1!
1I
19
1$
1[!
1L
1:
1#
0N
0K
#1100000
0!
0I
09
0$
#1110000
1!
1I
19
1$
0[!
0\!
09!
0Q
0O
0L
0:
0;
0<
02
01
0#
1N
1P
1M
1K
#1120000
0!
0I
09
0$
#1130000
1!
1I
19
1$
1[!
1L
1:
1#
0N
0K
#1140000
0!
0I
09
0$
#1150000
1!
1I
19
1$
0[!
1Q
1O
0L
0:
1;
1<
12
11
0#
1N
0P
0M
1K
1Y!
1=
1R
0v
10
1t
0w
1u
#1160000
0!
0I
09
0$
#1170000
1!
1I
19
1$
1[!
1L
1:
1#
0N
0K
#1180000
0!
0I
09
0$
#1190000
1!
1I
19
1$
0[!
1a!
0`!
0]!
1\!
19!
0|
0z
1{
0Q
0O
0L
0:
0;
0<
02
01
0#
1N
1P
1M
1K
#1200000
0!
0I
09
0$
#1210000
1!
1I
19
1$
1[!
1L
1:
1#
0N
0K
#1220000
0!
0I
09
0$
#1230000
1!
1I
19
1$
0[!
1Q
1O
0L
0:
1;
1<
12
11
0#
1N
0P
0M
1K
0Y!
1X!
1>
0=
0R
1v
0S
0t
00
1/
1S
1t
1q
1w
0u
0q
1u
1r
0r
#1240000
0!
0I
09
0$
#1250000
1!
1I
19
1$
1[!
1L
1:
1#
0N
0K
#1260000
0!
0I
09
0$
#1270000
1!
1I
19
1$
0[!
0a!
1`!
1]!
1|
1z
0{
0Q
0O
0L
0:
0;
0<
02
01
0#
1N
1P
1M
1K
#1280000
0!
0I
09
0$
#1290000
1!
1I
19
1$
1[!
1L
1:
1#
0N
0K
#1300000
0!
0I
09
0$
#1310000
1!
1I
19
1$
0[!
1Q
1O
0L
0:
1;
1<
12
11
0#
1N
0P
0M
1K
1Y!
1=
1R
0v
10
0S
0t
0w
1q
0u
1r
#1320000
0!
0I
09
0$
#1330000
1!
1I
19
1$
1[!
1L
1:
1#
0N
0K
#1340000
0!
0I
09
0$
#1350000
1!
1I
19
1$
0[!
0Q
0O
0L
0:
0;
0<
02
01
0#
1N
1P
1M
1K
#1360000
0!
0I
09
0$
#1370000
1!
1I
19
1$
1[!
1L
1:
1#
0N
0K
#1380000
0!
0I
09
0$
#1390000
1!
1I
19
1$
0[!
1Q
1O
0L
0:
1;
1<
12
11
0#
1N
0P
0M
1K
0Y!
0X!
1W!
1?
0>
0=
0R
1v
1S
1t
1T
0q
00
0/
1.
0t
0T
1q
1o
1w
1u
0r
0o
0u
1r
1p
0p
#1400000
0!
0I
09
0$
#1410000
1!
1I
19
1$
1[!
1L
1:
1#
0N
0K
#1420000
0!
0I
09
0$
#1430000
1!
1I
19
1$
0[!
0\!
09!
0Q
0O
0L
0:
0;
0<
02
01
0#
1N
1P
1M
1K
#1440000
0!
0I
09
0$
#1450000
1!
1I
19
1$
1[!
1L
1:
1#
0N
0K
#1460000
0!
0I
09
0$
#1470000
1!
1I
19
1$
0[!
1Q
1O
0L
0:
1;
1<
12
11
0#
1N
0P
0M
1K
1Y!
1=
1R
0v
10
1t
0w
1u
#1480000
0!
0I
09
0$
#1490000
1!
1I
19
1$
1[!
1L
1:
1#
0N
0K
#1500000
0!
0I
09
0$
#1510000
1!
1I
19
1$
0[!
0Q
0O
0L
0:
0;
0<
02
01
0#
1N
1P
1M
1K
#1520000
0!
0I
09
0$
#1530000
1!
1I
19
1$
1[!
1L
1:
1#
0N
0K
#1540000
0!
0I
09
0$
#1550000
1!
1I
19
1$
0[!
1Q
1O
0L
0:
1;
1<
12
11
0#
1N
0P
0M
1K
0Y!
1X!
1>
0=
0R
1v
0S
0t
00
1/
1S
1t
1T
0q
1w
0u
0T
1q
1o
1u
0r
0o
1r
1p
0p
#1560000
0!
0I
09
0$
#1570000
1!
1I
19
1$
1[!
1L
1:
1#
0N
0K
#1580000
0!
0I
09
0$
#1590000
1!
1I
19
1$
0[!
1a!
0`!
1e!
1d!
16!
15!
0z
1{
0Q
0O
0L
0:
0;
0<
1s
1_
02
01
0#
1N
1P
1M
1K
0w
0u
0r
1p
#1600000
0!
0I
09
0$
#1610000
1!
1I
19
1$
1[!
1L
1:
1#
0N
0K
#1620000
0!
0I
09
0$
#1630000
1!
1I
19
1$
0[!
1Q
1O
0L
0:
1;
1<
12
11
0#
1N
0P
0M
1K
0X!
0W!
1V!
1@
0?
0>
0t
0q
1o
0/
0.
1-
#1640000
0!
0I
09
0$
#1650000
1!
1I
19
1$
1[!
1L
1:
1#
0N
0K
#1660000
0!
0I
09
0$
#1670000
1!
1I
19
1$
0[!
0a!
1`!
0e!
0d!
1\!
19!
06!
05!
1z
0{
0Q
0O
0L
0:
0;
0<
0s
0_
02
01
0#
1N
1w
0p
0n
1P
1M
1K
1p
1n
#1680000
0!
0I
09
0$
#1690000
1!
1I
19
1$
1[!
1L
1:
1#
0N
0K
#1700000
0!
0I
09
0$
#1710000
1!
1I
19
1$
0[!
1Q
1O
0L
0:
1;
1<
12
11
0#
1N
0P
0M
1K
1Y!
1=
1R
0v
10
1t
0w
1u
#1720000
0!
0I
09
0$
#1730000
1!
1I
19
1$
1[!
1L
1:
1#
0N
0K
#1740000
0!
0I
09
0$
#1750000
1!
1I
19
1$
0[!
0`!
0]!
0\!
09!
0|
0z
0Q
0O
0L
0:
0;
0<
02
01
0#
1N
1P
1M
1K
#1760000
0!
0I
09
0$
#1770000
1!
1I
19
1$
1[!
1L
1:
1#
0N
0K
#1780000
0!
0I
09
0$
#1790000
1!
1I
19
1$
0[!
1Q
1O
0L
0:
1;
1<
12
11
0#
1N
0P
0M
1K
0Y!
1X!
1>
0=
0R
1v
0S
0t
00
1/
1S
1t
1q
1w
0u
0q
1u
1r
0r
#1800000
0!
0I
09
0$
#1810000
1!
1I
19
1$
1[!
1L
1:
1#
0N
0K
#1820000
0!
0I
09
0$
#1830000
1!
1I
19
1$
0[!
1`!
1]!
1|
1z
0Q
0O
0L
0:
0;
0<
02
01
0#
1N
1P
1M
1K
#1840000
0!
0I
09
0$
#1850000
1!
1I
19
1$
1[!
1L
1:
1#
0N
0K
#1860000
0!
0I
09
0$
#1870000
1!
1I
19
1$
0[!
1Q
1O
0L
0:
1;
1<
12
11
0#
1N
0P
0M
1K
1Y!
1=
1R
0v
10
0S
0t
0w
1q
0u
1r
#1880000
0!
0I
09
0$
#1890000
1!
1I
19
1$
1[!
1L
1:
1#
0N
0K
#1900000
0!
0I
09
0$
#1910000
1!
1I
19
1$
0[!
1e!
1d!
1c!
1b!
18!
17!
16!
15!
0Q
0O
0L
0:
0;
0<
02
01
0#
1N
1P
1M
1K
#1920000
0!
0I
09
0$
#1930000
1!
1I
19
1$
1[!
1L
1:
1#
0N
0K
#1940000
0!
0I
09
0$
#1950000
1!
1I
19
1$
0[!
1Q
1O
0L
0:
1;
1<
12
11
0#
1N
0P
0M
1K
0Y!
0X!
1W!
1?
0>
0=
0R
1v
1S
1t
1T
0q
00
0/
1.
0t
0T
1q
0U
0o
1w
1u
0r
1U
1o
1V
0m
0u
1r
0p
0V
1m
1k
1p
0n
0k
1n
1l
0l
#1960000
0!
0I
09
0$
#1970000
1!
1I
19
1$
1[!
1L
1:
1#
0N
0K
#1980000
0!
0I
09
0$
#1990000
1!
1I
19
1$
0[!
0e!
0d!
0c!
0]!
0b!
08!
0|
07!
06!
05!
0Q
0O
0L
0:
0;
0<
1_
02
01
0#
1N
1P
1M
1K
0w
0r
0p
0n
#2000000
0!
0I
09
0$
#2010000
1!
1I
19
1$
1[!
1L
1:
1#
0N
0K
#2020000
0!
0I
09
0$
#2030000
1!
1I
19
1$
0[!
1Q
1O
0L
0:
1;
1<
12
11
0#
1N
0P
0M
1K
0W!
0V!
0U!
0A
0@
0?
0q
0o
0m
0.
0-
0,
#2040000
0!
0I
09
0$
#2050000
1!
1I
19
1$
1[!
1L
1:
1#
0N
0K
#2060000
0!
0I
09
0$
#2070000
1!
1I
19
1$
0[!
0`!
0z
0Q
0O
0L
0:
0;
0<
0_
02
01
0#
1N
1P
1M
1K
1w
#2080000
0!
0I
09
0$
#2090000
1!
1I
19
1$
1[!
1L
1:
1#
0N
0K
#2100000
0!
0I
09
0$
#2110000
1!
1I
19
1$
0[!
1Q
1O
0L
0:
1;
1<
12
11
0#
1N
0P
0M
1K
1Y!
1=
1R
0v
10
1t
0w
1u
#2120000
0!
0I
09
0$
#2130000
1!
1I
19
1$
1[!
1L
1:
1#
0N
0K
#2140000
0!
0I
09
0$
#2150000
1!
1I
19
1$
0[!
0Q
0O
0L
0:
0;
0<
02
01
0#
1N
1P
1M
1K
#2160000
0!
0I
09
0$
#2170000
1!
1I
19
1$
1[!
1L
1:
1#
0N
0K
#2180000
0!
0I
09
0$
#2190000
1!
1I
19
1$
0[!
1Q
1O
0L
0:
1;
1<
12
11
0#
1N
0P
0M
1K
0Y!
1X!
1>
0=
0R
1v
0S
0t
00
1/
1S
1t
1q
1w
0u
0q
1u
1r
0r
#2200000
0!
0I
09
0$
#2210000
1!
1I
19
1$
1[!
1L
1:
1#
0N
0K
#2220000
0!
0I
09
0$
#2230000
1!
1I
19
1$
0[!
1`!
1]!
1\!
19!
1|
1z
0Q
0O
0L
0:
0;
0<
02
01
0#
1N
1P
1M
1K
#2240000
0!
0I
09
0$
#2250000
1!
1I
19
1$
1[!
1L
1:
1#
0N
0K
#2260000
0!
0I
09
0$
#2270000
1!
1I
19
1$
0[!
1Q
1O
0L
0:
1;
1<
12
11
0#
1N
0P
0M
1K
1Y!
1=
1R
0v
10
0S
0t
0w
1q
0u
1r
#2280000
0!
0I
09
0$
#2290000
1!
1I
19
1$
1[!
1L
1:
1#
0N
0K
#2300000
0!
0I
09
0$
#2310000
1!
1I
19
1$
0[!
0`!
1c!
17!
0z
0Q
0O
0L
0:
0;
0<
1s
1_
02
01
0#
1N
1P
1M
1K
1w
#2320000
0!
0I
09
0$
#2330000
1!
1I
19
1$
1[!
1L
1:
1#
0N
0K
#2340000
0!
0I
09
0$
#2350000
1!
1I
19
1$
0[!
1Q
1O
0L
0:
1;
1<
12
11
0#
1N
0P
0M
1K
0X!
1W!
1?
0>
1S
1t
1T
0q
0/
1.
0T
1q
1o
0o
#2360000
0!
0I
09
0$
#2370000
1!
1I
19
1$
1[!
1L
1:
1#
0N
0K
#2380000
0!
0I
09
0$
